0 0.134375 0.483750 0.246250 0.325000
0 0.321875 0.232500 0.246250 0.325000
0 0.856875 0.346250 0.246250 0.325000
0 0.511250 0.186250 0.300000 0.365000
0 0.697500 0.398750 0.295000 0.375000
0 0.662500 0.726250 0.295000 0.375000
0 0.493125 0.498125 0.321250 0.396250
0 0.488125 0.818750 0.286250 0.302500
0 0.825625 0.606875 0.251250 0.281250
