0 0.176000 0.408000 0.240000 0.224000
0 0.071000 0.535000 0.138000 0.170000
0 0.178000 0.711000 0.192000 0.130000
0 0.302000 0.582000 0.168000 0.156000
0 0.193000 0.565000 0.206000 0.238000
0 0.751000 0.861000 0.274000 0.278000
0 0.619000 0.454000 0.242000 0.220000
0 0.757000 0.206000 0.326000 0.348000
0 0.905000 0.579000 0.190000 0.230000
0 0.767000 0.546000 0.234000 0.452000
