0 0.518041 0.276062 0.530928 0.444015
0 0.515464 0.449807 0.804124 0.173745
0 0.711340 0.583012 0.288660 0.193050
0 0.417526 0.604247 0.288660 0.196911
0 0.226804 0.635135 0.226804 0.127413
0 0.494845 0.805019 0.402062 0.250965
