classes= 80
train  = /home/pjreddie/data/coco/trainvalno5k.txt
valid  = coco_testdev
#valid = data/coco_val_5k.list
names = /content/balloon-dataset-test/data/coco.names
backup = /home/pjreddie/backup/
eval=coco